…
  # Add start and end dates to date vectors
  start_dates <- c(start_dates, current_dates$start)
}
# Create a new dataframe with element names and change dates
final_dataframe <- data.frame(COD = element_names, start = start_dates)

# Remove the last _ and numbers from the COD column to extract the area name
final_dataframe$AREA <- gsub("_\\d+$", "", final_dataframe$COD)

# Store the final dataframe
write.csv(final_dataframe, "G:/Altri computer/Il_mio_computer/DOTTORATO/PROGETTI/OLIVASTRO_PAULILATINO/REGRESSIONE/finaldataframe.csv")
```

    ## # A tibble: 154 × 4
    ##     ...1 COD               start   AREA         
    ##    <dbl> <chr>             <chr>   <chr>        
    ##  1     1 ATZARA_68         2019-1  ATZARA       
    ##  2     2 FUNTANA_SASSA_100 2021-1  FUNTANA_SASSA
    ##  3     3 FUNTANA_SASSA_101 2021-1  FUNTANA_SASSA
    ##  4     4 FUNTANA_SASSA_102 2020-7  FUNTANA_SASSA
    ##  5     5 FUNTANA_SASSA_104 2021-1  FUNTANA_SASSA
    ##  6     6 FUNTANA_SASSA_105 2020-10 FUNTANA_SASSA
    ##  7     7 FUNTANA_SASSA_108 2020-10 FUNTANA_SASSA
    ##  8     8 FUNTANA_SASSA_114 2020-7  FUNTANA_SASSA
    ##  9     9 FUNTANA_SASSA_125 2021-4  FUNTANA_SASSA
    ## 10    10 FUNTANA_SASSA_128 2021-4  FUNTANA_SASSA
    ## # ℹ 144 more rows
…
